{"name":"2 - lista de usuarios","id":"consulta-de-api-de-todo-mis-usuarios;2---lista-de-usuarios","testSteps":[{"number":1,"description":"Example: {numero\u003d2, usuario\u003dMichael}","duration":12283,"startTime":"2020-11-22T22:23:05.517-05:00[America/Lima]","screenshots":[{"screenshot":"5db84127d62b5de5e0b794619a93b89d3cb3bc6cf057a3ee9af1f77dfab7f0b2.png","timeStamp":1606101797800}],"result":"SUCCESS","precondition":false,"level":0,"lineNumber":9,"children":[{"number":2,"description":"When quiero realizar la consulta la lista de mis usuarios","duration":11701,"startTime":"2020-11-22T22:23:05.584-05:00[America/Lima]","screenshots":[{"screenshot":"5db84127d62b5de5e0b794619a93b89d3cb3bc6cf057a3ee9af1f77dfab7f0b2.png","timeStamp":1606101797285}],"result":"SUCCESS","precondition":false,"level":1,"children":[{"number":3,"description":"Cesar consulta usuarios","duration":4647,"startTime":"2020-11-22T22:23:05.935-05:00[America/Lima]","result":"SUCCESS","precondition":false,"level":2,"children":[{"number":4,"description":"Cesar executes a GET on the resource /users?page\u003d2","duration":4628,"startTime":"2020-11-22T22:23:05.952-05:00[America/Lima]","result":"SUCCESS","precondition":false,"level":3,"children":[{"number":5,"description":"GET https://reqres.in/api/users?page\u003d2","duration":1,"startTime":"2020-11-22T22:23:10.576-05:00[America/Lima]","result":"SUCCESS","restQuery":{"method":"GET","path":"https://reqres.in/api/users?page\u003d2","content":"","contentType":"null","requestHeaders":"Accept\u003d*/*","requestCookies":"","responseHeaders":"Date: Mon, 23 Nov 2020 03:23:10 GMT\nContent-Type: application/json; charset\u003dutf-8\nTransfer-Encoding: chunked\nConnection: keep-alive\nSet-Cookie: __cfduid\u003ddfce49d8e80a5d7ce387b6499304327571606101789; expires\u003dWed, 23-Dec-20 03:23:09 GMT; path\u003d/; domain\u003d.reqres.in; HttpOnly; SameSite\u003dLax; Secure\nX-Powered-By: Express\nAccess-Control-Allow-Origin: *\nEtag: W/\"49d-b2otMkV7mutKOvoJHCgtL+bxfLk\"\nVia: 1.1 vegur\nCF-Cache-Status: DYNAMIC\ncf-request-id: 0694b982380000f7ba770f7000000001\nExpect-CT: max-age\u003d604800, report-uri\u003d\"https://report-uri.cloudflare.com/cdn-cgi/beacon/expect-ct\"\nReport-To: {\"endpoints\":[{\"url\":\"https:\\/\\/a.nel.cloudflare.com\\/report?s\u003dkhcGUgUYsE39F6mEXBgoa31OC4xf00j1NSsv%2FAIH17AZxN3uZ%2FC3r9h6gP2UhGA7XAK7McMVpAiVTtWifnjYSAuO11mmK2mS8AQ%3D\"}],\"group\":\"cf-nel\",\"max_age\":604800}\nNEL: {\"report_to\":\"cf-nel\",\"max_age\":604800}\nServer: cloudflare\nCF-RAY: 5f67c516beabf7ba-EZE\nContent-Encoding: gzip","responseCookies":"__cfduid\u003ddfce49d8e80a5d7ce387b6499304327571606101789;Path\u003d/;Domain\u003d.reqres.in;Secure;HttpOnly;Expires\u003d23/12/20 3:23","responseBody":"{\n    \"page\": 2,\n    \"per_page\": 6,\n    \"total\": 12,\n    \"total_pages\": 2,\n    \"data\": [\n        {\n            \"id\": 7,\n            \"email\": \"michael.lawson@reqres.in\",\n            \"first_name\": \"Michael\",\n            \"last_name\": \"Lawson\",\n            \"avatar\": \"https://s3.amazonaws.com/uifaces/faces/twitter/follettkyle/128.jpg\"\n        },\n        {\n            \"id\": 8,\n            \"email\": \"lindsay.ferguson@reqres.in\",\n            \"first_name\": \"Lindsay\",\n            \"last_name\": \"Ferguson\",\n            \"avatar\": \"https://s3.amazonaws.com/uifaces/faces/twitter/araa3185/128.jpg\"\n        },\n        {\n            \"id\": 9,\n            \"email\": \"tobias.funke@reqres.in\",\n            \"first_name\": \"Tobias\",\n            \"last_name\": \"Funke\",\n            \"avatar\": \"https://s3.amazonaws.com/uifaces/faces/twitter/vivekprvr/128.jpg\"\n        },\n        {\n            \"id\": 10,\n            \"email\": \"byron.fields@reqres.in\",\n            \"first_name\": \"Byron\",\n            \"last_name\": \"Fields\",\n            \"avatar\": \"https://s3.amazonaws.com/uifaces/faces/twitter/russoedu/128.jpg\"\n        },\n        {\n            \"id\": 11,\n            \"email\": \"george.edwards@reqres.in\",\n            \"first_name\": \"George\",\n            \"last_name\": \"Edwards\",\n            \"avatar\": \"https://s3.amazonaws.com/uifaces/faces/twitter/mrmoiree/128.jpg\"\n        },\n        {\n            \"id\": 12,\n            \"email\": \"rachel.howell@reqres.in\",\n            \"first_name\": \"Rachel\",\n            \"last_name\": \"Howell\",\n            \"avatar\": \"https://s3.amazonaws.com/uifaces/faces/twitter/hebertialmeida/128.jpg\"\n        }\n    ],\n    \"support\": {\n        \"url\": \"https://reqres.in/#support-heading\",\n        \"text\": \"To keep ReqRes free, contributions towards server costs are appreciated!\"\n    }\n}","statusCode":200},"precondition":false,"level":4}]}]},{"number":6,"description":"Cesar opens the Reqres page","duration":6286,"startTime":"2020-11-22T22:23:10.584-05:00[America/Lima]","screenshots":[{"screenshot":"d5cac6621b3b2bb7484044ebad471ff4ddf72b6a10eb99c7d2b742bc50f57709.png","timeStamp":1606101796869}],"result":"SUCCESS","precondition":false,"level":2}]},{"number":7,"description":"Then validar la lista de mis usuarioss","duration":508,"startTime":"2020-11-22T22:23:17.290-05:00[America/Lima]","screenshots":[{"screenshot":"5db84127d62b5de5e0b794619a93b89d3cb3bc6cf057a3ee9af1f77dfab7f0b2.png","timeStamp":1606101797297},{"screenshot":"5db84127d62b5de5e0b794619a93b89d3cb3bc6cf057a3ee9af1f77dfab7f0b2.png","timeStamp":1606101797798}],"result":"SUCCESS","precondition":false,"level":1,"children":[{"number":8,"description":"Then El statucode tiene que ser 200","duration":152,"startTime":"2020-11-22T22:23:17.381-05:00[America/Lima]","screenshots":[{"screenshot":"5db84127d62b5de5e0b794619a93b89d3cb3bc6cf057a3ee9af1f77dfab7f0b2.png","timeStamp":1606101797528},{"screenshot":"5db84127d62b5de5e0b794619a93b89d3cb3bc6cf057a3ee9af1f77dfab7f0b2.png","timeStamp":1606101797533}],"result":"SUCCESS","precondition":false,"level":2},{"number":9,"description":"Then Servicio de usuarios","duration":262,"startTime":"2020-11-22T22:23:17.535-05:00[America/Lima]","screenshots":[{"screenshot":"5db84127d62b5de5e0b794619a93b89d3cb3bc6cf057a3ee9af1f77dfab7f0b2.png","timeStamp":1606101797537},{"screenshot":"5db84127d62b5de5e0b794619a93b89d3cb3bc6cf057a3ee9af1f77dfab7f0b2.png","timeStamp":1606101797796}],"result":"SUCCESS","precondition":false,"level":2}]}]}],"userStory":{"id":"consulta-de-api-de-todo-mis-usuarios","storyName":"consulta de api de todo mis usuarios","path":"ApiRegres.feature","type":"feature"},"featureTag":{"name":"consulta de api de todo mis usuarios","type":"feature","displayName":"consulta de api de todo mis usuarios"},"title":"2 - lista de usuarios","tags":[{"name":"ListUsers","type":"tag","displayName":"ListUsers"},{"name":"tag","type":"tag","displayName":"tag"},{"name":"consulta de api de todo mis usuarios","type":"feature","displayName":"consulta de api de todo mis usuarios"}],"startTime":"2020-11-22T22:23:05.440-05:00[America/Lima]","duration":12636,"projectKey":"","driver":"chrome:cesar","isManualTestingUpToDate":false,"dataTable":{"headers":["numero","usuario"],"rows":[{"values":["2","Michael"],"lineNumber":9,"result":"SUCCESS"}],"predefinedRows":true,"scenarioOutline":"When quiero realizar la consulta la lista de mis usuarios\n\rThen validar la lista de mis usuarioss\n\r","dataSetDescriptors":[{"startRow":0,"rowCount":0,"name":""}]},"manual":false,"testSource":"Cucumber","actors":[{"name":"Cesar","can":["browse the web","call an API at https://reqres.in/api"]}],"result":"SUCCESS","scenarioOutline":"When quiero realizar la consulta la lista de mis usuarios\nThen validar la lista de mis usuarioss"}